Shortcut,Purpose
kbd:[{commandkey} + L],Go to line
kbd:[Option + Return],Autocomplete imports
kbd:[Ctrl + {commandkey} + F12],Maximize/minimize editor
kbd:[Ctrl + G],Start multiple select/replace session
kbd:[{commandkey} + O],Find class
kbd:[{commandkey} + Shift + A],Find action
kbd:[Shift + Shift],Quick search everywhere
kbd:[{commandkey} + Shift + O],Quick open file
kbd:[Option + ↓],Jump to Lint issue in code
kbd:[{commandkey} + E],Recently opened files pop-up
kbd:[{commandkey} + N],"Generate code (getters, setters, constructors, etc.)"
kbd:[Ctrl + T],Refactor selected element
kbd:[Shift + F6],Rename refactoring
kbd:[{commandkey} + O],Override methods
kbd:[{commandkey} + D],Duplicate current line
kbd:[Ctrl + Space],Basic code completion
kbd:[{commandkey} + U],Go to super method/class
kbd:[{commandkey} + /],Comment/uncomment current line(s)
kbd:[{commandkey} + Shift + /],Comment/uncomment current line(s) with C style
kbd:[{commandkey} + Option + L],Reformat code
kbd:[Shift + {commandkey} + Option + L],Reformat code dialog
kbd:[Control + Option + O],Optimize imports
kbd:[Ctrl + R],Build and run
kbd:[Ctrl + D],Debug
kbd:[F8],Step over
kbd:[F7],Step into
kbd:[{commandkey} + F8],Toggle breakpoint
kbd:[Shift + {commandkey} + F8],Open Breakpoints window
kbd:[{commandkey} + Option + M],Extract method
kbd:[{commandkey} + Shift + T],Edit or create test for current class
kbd:[Ctrl + Shift + R],Run current test
