Code Name,Version Number,Release Date,API Level,Support status,%
Alpha,1.0,"September 23, 2008",1,Discontinued,–
Beta,1.1,"February 9, 2009",2,Discontinued,–
Cupcake,1.5,"April 27, 2009",3,Discontinued,–
Donut,1.6,"September 15, 2009",4,Discontinued,–
Eclair,2.0 - 2.1,"October 26, 2009",5 - 7,Discontinued,–
Froyo,2.2 - 2.2.3,"May 20, 2010",8,Discontinued,–
Gingerbread,2.3 - 2.3.7,"December 6, 2010",9 - 10,Discontinued,0.4%
Honeycomb,3.0 - 3.2.6,"February 22, 2011",11 - 13,Discontinued,–
Ice Cream Sandwich,4.0 - 4.0.4,"October 18, 2011",14 - 15,Discontinued,0.5%
Jelly Bean,4.1 - 4.3.1,"July 9, 2012",16 - 18,Discontinued,5.9%
KitKat,4.4 - 4.4.4,"October 31, 2013",19 - 20,Discontinued,13.4%
Lollipop,5.0 - 5.1.1,"November 12, 2014",21 - 22,Supported,26.3%
Marshmallow,6.0 - 6.0.1,"October 5, 2015",23,Supported,29.7%
Nougat,7.0 - 7.1.2,"August 22, 2016",24 - 25,Supported,23.3%
Oreo,8.0 - 8.1,"August 21, 2017",26 - 27,Supported,0.5%
