,Android,iOS
IDE,Android Studio,Xcode
Profiling,Android Device Monitor,Instruments
Preview,Android Emulator,iOS Simulator
Programming Language,Kotlin or Java,Swift or Objective-C
Command Line,`gradlew` – `ant`,`xcodebuild`
Hacking,Rooting,Jailbreaking
Application metadata,AndroidManifest.xml,Info.plist
Dependency Manager,Gradle,CocoaPods – Carthage
Distribution,APK,IPA
Debugger,ADB + DDMS,LLDB
Logger,LogCat,NSLog() or print()
View Debugging,Hierarchy viewer,Xcode view debugging
Static Analysis,Android Lint,Clang Static Analyzer
